^D:\DRIVE\`2018-SEM2\PP\LAB\PROBLEMA\CIRCULARPRIMESC\PROJECT1\PROJECT1\SOURCE.CPP
D:\DRIVE\`2018-SEM2\PP\LAB\PROBLEMA\CIRCULARPRIMESC\PROJECT1\PROJECT1\DEBUG\VC141.PDB
D:\DRIVE\`2018-SEM2\PP\LAB\PROBLEMA\CIRCULARPRIMESC\PROJECT1\PROJECT1\DEBUG\VC141.IDB
D:\DRIVE\`2018-SEM2\PP\LAB\PROBLEMA\CIRCULARPRIMESC\PROJECT1\PROJECT1\DEBUG\SOURCE.OBJ
